<svg xmlns="http://www.w3.org/2000/svg" version="1.1" x="0" y="0" viewBox="0 0 150 150" xml:space="preserve"><style type="text/css">
	.st0{fill:#FAFBFB;}
	.st1{fill:#9D9D9D;}
</style><rect x="-18" y="-18" class="st0" width="186.1" height="186.1"/><path class="st1" d="M103.2 92.9V50.6c0-3.3-2.7-6.1-6.1-6.1H54.8c-3.3 0-6.1 2.7-6.1 6.1v42.4c0 3.3 2.7 6.1 6.1 6.1h42.4C100.5 99 103.2 96.3 103.2 92.9zM65.4 76.3l7.6 9.1 10.6-13.7 13.6 18.2H54.8L65.4 76.3z"/></svg>